Prism plot flipbook
…
class: split-40
count: false
.column[.content[

```r
*prism_bigfc
```
]]
.column[.content[

```
# A tibble: 122,166 x 15
   x1    drug  log2fc drug_short column_name broad_id name   dose screen_id
   <chr> <chr>  <dbl> <chr>      <chr>       <chr>    <chr> <dbl> <chr>    
 1 ACH-… brd_…  -2.07 brd_a2737… BRD-A27376… BRD-A27… lest…  2.5  HTS      
 2 ACH-… brd_…  -2.78 brd_a6896… BRD-A68969… BRD-A68… echi…  2.57 HTS      
 3 ACH-… brd_…  -2.50 brd_a9475… BRD-A94756… BRD-A94… digo…  2.5  HTS      
 4 ACH-… brd_…  -2.03 brd_k0031… BRD-K00317… BRD-K00… RITA   2.4  HTS      
 5 ACH-… brd_…  -2.05 brd_k0324… BRD-K03243… BRD-K03… trif…  2.37 HTS      
 6 ACH-… brd_…  -2.52 brd_k0788… BRD-K07881… BRD-K07… danu…  2.41 HTS      
 7 ACH-… brd_…  -2.53 brd_k0795… BRD-K07955… BRD-K07… PF-0…  2.5  HTS      
 8 ACH-… brd_…  -2.33 brd_k1036… BRD-K10362… BRD-K10… teni…  2.5  HTS      
 9 ACH-… brd_…  -2.13 brd_k1192… BRD-K11927… BRD-K11… ER-2…  2.5  HTS      
10 ACH-… brd_…  -2.19 brd_k1282… BRD-K12829… BRD-K12… mech…  2.5  HTS      
# … with 122,156 more rows, and 6 more variables: moa <chr>, target <chr>,
#   disease_area <chr>, indication <chr>, smiles <chr>, phase <chr>
```
…
